<?xml version="1.0" encoding="UTF-8" standalone="no"?>
<!DOCTYPE svg PUBLIC "-//W3C//DTD SVG 1.1//EN" "http://www.w3.org/Graphics/SVG/1.1/DTD/svg11.dtd">
<svg width="100%" height="100%" viewBox="0 0 192 192" version="1.1" xmlns="http://www.w3.org/2000/svg" xmlns:xlink="http://www.w3.org/1999/xlink" xml:space="preserve" xmlns:serif="http://www.serif.com/" style="fill-rule:evenodd;clip-rule:evenodd;stroke-linejoin:round;stroke-miterlimit:2;">
    <g transform="matrix(1,0,0,1,-1254,-24)">
        <g transform="matrix(0.989691,0,0,0.989691,227.691,0.247423)">
            <rect id="light-logo" x="1037" y="24" width="194" height="194" style="fill:none;"/>
            <g id="light-logo1" serif:id="light-logo">
                <g transform="matrix(1.01042,0,0,1.01042,1037.24,24)">
                    <g transform="matrix(1,0,0,1,-0.237169,-2.09255e-12)">
                        <path d="M16,92C16,89.791 14.209,88 12,88L12,88C9.791,88 8,89.791 8,92L8,92C8,94.209 9.791,96 12,96L12,96C14.209,96 16,94.209 16,92L16,92Z" style="fill:url(#_Linear1);"/>
                    </g>
                    <g transform="matrix(1,0,0,2.5,11.7628,-148)">
                        <path d="M16,89.6C16,89.176 15.579,88.769 14.828,88.469C14.078,88.169 13.061,88 12,88L12,88C9.791,88 8,88.716 8,89.6L8,94.4C8,94.824 8.421,95.231 9.172,95.531C9.922,95.831 10.939,96 12,96L12,96C14.209,96 16,95.284 16,94.4L16,89.6Z" style="fill:url(#_Linear2);"/>
                    </g>
                    <g transform="matrix(1,0,0,8,23.7628,-664)">
                        <path d="M16,88.5C16,88.367 15.579,88.24 14.828,88.146C14.078,88.053 13.061,88 12,88L12,88C10.939,88 9.922,88.053 9.172,88.146C8.421,88.24 8,88.367 8,88.5L8,95.5C8,95.633 8.421,95.76 9.172,95.854C9.922,95.947 10.939,96 12,96L12,96C13.061,96 14.078,95.947 14.828,95.854C15.579,95.76 16,95.633 16,95.5L16,88.5Z" style="fill:url(#_Linear3);"/>
                    </g>
                    <g transform="matrix(1,0,0,14,35.7628,-1208)">
                        <path d="M16,88.286C16,88.128 14.209,88 12,88L12,88C9.791,88 8,88.128 8,88.286C8,89.53 8,94.47 8,95.714C8,95.872 9.791,96 12,96L12,96C14.209,96 16,95.872 16,95.714C16,94.47 16,89.53 16,88.286Z" style="fill:url(#_Linear4);"/>
                    </g>
                    <g transform="matrix(1,0,0,16.5,47.7628,-1416)">
                        <path d="M16,88.242C16,88.178 15.579,88.116 14.828,88.071C14.078,88.026 13.061,88 12,88L12,88C10.939,88 9.922,88.026 9.172,88.071C8.421,88.116 8,88.178 8,88.242L8,95.758C8,95.822 8.421,95.884 9.172,95.929C9.922,95.974 10.939,96 12,96L12,96C13.061,96 14.078,95.974 14.828,95.929C15.579,95.884 16,95.822 16,95.758L16,88.242Z" style="fill:url(#_Linear5);"/>
                    </g>
                    <g transform="matrix(1,0,0,13.5,59.7628,-1116)">
                        <path d="M16,88.296C16,88.133 14.209,88 12,88C12,88 12,88 12,88C9.791,88 8,88.133 8,88.296C8,89.554 8,94.446 8,95.704C8,95.867 9.791,96 12,96C12,96 12,96 12,96C14.209,96 16,95.867 16,95.704C16,94.446 16,89.554 16,88.296Z" style="fill:url(#_Linear6);"/>
                    </g>
                    <g transform="matrix(1,0,0,8.5,71.7628,-644)">
                        <path d="M16,88.471C16,88.211 14.209,88 12,88C12,88 12,88 12,88C9.791,88 8,88.211 8,88.471C8,89.889 8,94.111 8,95.529C8,95.789 9.791,96 12,96C12,96 12,96 12,96C14.209,96 16,95.789 16,95.529C16,94.111 16,89.889 16,88.471Z" style="fill:url(#_Linear7);"/>
                    </g>
                    <g transform="matrix(1,0,0,3.5,83.7628,-184)">
                        <path d="M16,89.143C16,88.84 15.579,88.549 14.828,88.335C14.078,88.12 13.061,88 12,88C12,88 12,88 12,88C10.939,88 9.922,88.12 9.172,88.335C8.421,88.549 8,88.84 8,89.143C8,90.663 8,93.337 8,94.857C8,95.16 8.421,95.451 9.172,95.665C9.922,95.88 10.939,96 12,96C12,96 12,96 12,96C13.061,96 14.078,95.88 14.828,95.665C15.579,95.451 16,95.16 16,94.857C16,93.337 16,90.663 16,89.143Z" style="fill:url(#_Linear8);"/>
                    </g>
                    <g transform="matrix(1,0,0,1,95.7628,36)">
                        <path d="M16,92C16,89.791 14.209,88 12,88L12,88C9.791,88 8,89.791 8,92L8,92C8,94.209 9.791,96 12,96L12,96C14.209,96 16,94.209 16,92L16,92Z" style="fill:url(#_Linear9);"/>
                    </g>
                    <g transform="matrix(1,0,0,2,107.763,-64)">
                        <path d="M16,90C16,88.895 14.209,88 12,88C12,88 12,88 12,88C9.791,88 8,88.895 8,90C8,91.222 8,92.778 8,94C8,95.105 9.791,96 12,96C12,96 12,96 12,96C14.209,96 16,95.105 16,94C16,92.778 16,91.222 16,90Z" style="fill:url(#_Linear10);"/>
                    </g>
                    <g transform="matrix(1,0,0,2.5,119.763,-120)">
                        <path d="M16,89.6C16,89.176 15.579,88.769 14.828,88.469C14.078,88.169 13.061,88 12,88L12,88C9.791,88 8,88.716 8,89.6L8,94.4C8,94.824 8.421,95.231 9.172,95.531C9.922,95.831 10.939,96 12,96L12,96C14.209,96 16,95.284 16,94.4L16,89.6Z" style="fill:url(#_Linear11);"/>
                    </g>
                    <g transform="matrix(1,0,0,2.5,131.763,-128)">
                        <path d="M16,89.6C16,89.176 15.579,88.769 14.828,88.469C14.078,88.169 13.061,88 12,88L12,88C9.791,88 8,88.716 8,89.6L8,94.4C8,94.824 8.421,95.231 9.172,95.531C9.922,95.831 10.939,96 12,96L12,96C14.209,96 16,95.284 16,94.4L16,89.6Z" style="fill:url(#_Linear12);"/>
                    </g>
                    <g transform="matrix(1,0,0,2,143.763,-84)">
                        <path d="M16,90C16,88.895 14.209,88 12,88C12,88 12,88 12,88C9.791,88 8,88.895 8,90C8,91.222 8,92.778 8,94C8,95.105 9.791,96 12,96C12,96 12,96 12,96C14.209,96 16,95.105 16,94C16,92.778 16,91.222 16,90Z" style="fill:url(#_Linear13);"/>
                    </g>
                    <g transform="matrix(1,0,0,1.5,155.763,-40)">
                        <path d="M16,90.667C16,89.959 15.579,89.281 14.828,88.781C14.078,88.281 13.061,88 12,88C12,88 12,88 12,88C10.939,88 9.922,88.281 9.172,88.781C8.421,89.281 8,89.959 8,90.667C8,91.525 8,92.475 8,93.333C8,94.041 8.421,94.719 9.172,95.219C9.922,95.719 10.939,96 12,96C12,96 12,96 12,96C13.061,96 14.078,95.719 14.828,95.219C15.579,94.719 16,94.041 16,93.333C16,92.475 16,91.525 16,90.667Z" style="fill:url(#_Linear14);"/>
                    </g>
                    <g transform="matrix(1,0,0,1,167.763,8)">
                        <path d="M16,92C16,89.791 14.209,88 12,88L12,88C9.791,88 8,89.791 8,92L8,92C8,94.209 9.791,96 12,96L12,96C14.209,96 16,94.209 16,92L16,92Z" style="fill:url(#_Linear15);"/>
                    </g>
                </g>
            </g>
        </g>
    </g>
    <defs>
        <linearGradient id="_Linear1" x1="0" y1="0" x2="1" y2="0" gradientUnits="userSpaceOnUse" gradientTransform="matrix(4.89859e-16,-8,8,4.89859e-16,12,96)"><stop offset="0" style="stop-color:rgb(176,196,113);stop-opacity:1"/><stop offset="0.5" style="stop-color:rgb(0,147,129);stop-opacity:1"/><stop offset="1" style="stop-color:rgb(0,147,129);stop-opacity:0"/></linearGradient>
        <linearGradient id="_Linear2" x1="0" y1="0" x2="1" y2="0" gradientUnits="userSpaceOnUse" gradientTransform="matrix(1.22465e-15,-8,20,4.89859e-16,12,96)"><stop offset="0" style="stop-color:rgb(176,196,113);stop-opacity:1"/><stop offset="0.5" style="stop-color:rgb(0,147,129);stop-opacity:1"/><stop offset="1" style="stop-color:rgb(0,147,129);stop-opacity:0"/></linearGradient>
        <linearGradient id="_Linear3" x1="0" y1="0" x2="1" y2="0" gradientUnits="userSpaceOnUse" gradientTransform="matrix(3.91887e-15,-8,64,4.89859e-16,12,96)"><stop offset="0" style="stop-color:rgb(176,196,113);stop-opacity:1"/><stop offset="0.5" style="stop-color:rgb(0,147,129);stop-opacity:1"/><stop offset="1" style="stop-color:rgb(0,147,129);stop-opacity:0"/></linearGradient>
        <linearGradient id="_Linear4" x1="0" y1="0" x2="1" y2="0" gradientUnits="userSpaceOnUse" gradientTransform="matrix(6.85802e-15,-8,112,4.89859e-16,12,96)"><stop offset="0" style="stop-color:rgb(176,196,113);stop-opacity:1"/><stop offset="0.5" style="stop-color:rgb(0,147,129);stop-opacity:1"/><stop offset="1" style="stop-color:rgb(0,147,129);stop-opacity:0"/></linearGradient>
        <linearGradient id="_Linear5" x1="0" y1="0" x2="1" y2="0" gradientUnits="userSpaceOnUse" gradientTransform="matrix(8.08267e-15,-8,132,4.89859e-16,12,96)"><stop offset="0" style="stop-color:rgb(176,196,113);stop-opacity:1"/><stop offset="0.5" style="stop-color:rgb(0,147,129);stop-opacity:1"/><stop offset="1" style="stop-color:rgb(0,147,129);stop-opacity:0"/></linearGradient>
        <linearGradient id="_Linear6" x1="0" y1="0" x2="1" y2="0" gradientUnits="userSpaceOnUse" gradientTransform="matrix(6.61309e-15,-8,108,4.89859e-16,12,96)"><stop offset="0" style="stop-color:rgb(176,196,113);stop-opacity:1"/><stop offset="0.5" style="stop-color:rgb(0,147,129);stop-opacity:1"/><stop offset="1" style="stop-color:rgb(0,147,129);stop-opacity:0"/></linearGradient>
        <linearGradient id="_Linear7" x1="0" y1="0" x2="1" y2="0" gradientUnits="userSpaceOnUse" gradientTransform="matrix(4.1638e-15,-8,68,4.89859e-16,12,96)"><stop offset="0" style="stop-color:rgb(176,196,113);stop-opacity:1"/><stop offset="0.5" style="stop-color:rgb(0,147,129);stop-opacity:1"/><stop offset="1" style="stop-color:rgb(0,147,129);stop-opacity:0"/></linearGradient>
        <linearGradient id="_Linear8" x1="0" y1="0" x2="1" y2="0" gradientUnits="userSpaceOnUse" gradientTransform="matrix(1.71451e-15,-8,28,4.89859e-16,11.7628,96)"><stop offset="0" style="stop-color:rgb(176,196,113);stop-opacity:1"/><stop offset="0.5" style="stop-color:rgb(0,147,129);stop-opacity:1"/><stop offset="1" style="stop-color:rgb(0,147,129);stop-opacity:0"/></linearGradient>
        <linearGradient id="_Linear9" x1="0" y1="0" x2="1" y2="0" gradientUnits="userSpaceOnUse" gradientTransform="matrix(8.5755e-14,-8,8,8.5755e-14,12,96)"><stop offset="0" style="stop-color:rgb(176,196,113);stop-opacity:1"/><stop offset="0.5" style="stop-color:rgb(0,147,129);stop-opacity:1"/><stop offset="1" style="stop-color:rgb(0,147,129);stop-opacity:0"/></linearGradient>
        <linearGradient id="_Linear10" x1="0" y1="0" x2="1" y2="0" gradientUnits="userSpaceOnUse" gradientTransform="matrix(9.79717e-16,-8,16,4.89859e-16,12,96)"><stop offset="0" style="stop-color:rgb(176,196,113);stop-opacity:1"/><stop offset="0.5" style="stop-color:rgb(0,147,129);stop-opacity:1"/><stop offset="1" style="stop-color:rgb(0,147,129);stop-opacity:0"/></linearGradient>
        <linearGradient id="_Linear11" x1="0" y1="0" x2="1" y2="0" gradientUnits="userSpaceOnUse" gradientTransform="matrix(1.22465e-15,-8,20,4.89859e-16,12,96)"><stop offset="0" style="stop-color:rgb(176,196,113);stop-opacity:1"/><stop offset="0.5" style="stop-color:rgb(0,147,129);stop-opacity:1"/><stop offset="1" style="stop-color:rgb(0,147,129);stop-opacity:0"/></linearGradient>
        <linearGradient id="_Linear12" x1="0" y1="0" x2="1" y2="0" gradientUnits="userSpaceOnUse" gradientTransform="matrix(1.69979e-13,-8,20,6.79914e-14,12,96)"><stop offset="0" style="stop-color:rgb(176,196,113);stop-opacity:1"/><stop offset="0.5" style="stop-color:rgb(0,147,129);stop-opacity:1"/><stop offset="1" style="stop-color:rgb(0,147,129);stop-opacity:0"/></linearGradient>
        <linearGradient id="_Linear13" x1="0" y1="0" x2="1" y2="0" gradientUnits="userSpaceOnUse" gradientTransform="matrix(9.79717e-16,-8,16,4.89859e-16,12,96)"><stop offset="0" style="stop-color:rgb(176,196,113);stop-opacity:1"/><stop offset="0.5" style="stop-color:rgb(0,147,129);stop-opacity:1"/><stop offset="1" style="stop-color:rgb(0,147,129);stop-opacity:0"/></linearGradient>
        <linearGradient id="_Linear14" x1="0" y1="0" x2="1" y2="0" gradientUnits="userSpaceOnUse" gradientTransform="matrix(7.34788e-16,-8,18,7.34788e-16,12,96)"><stop offset="0" style="stop-color:rgb(176,196,113);stop-opacity:1"/><stop offset="0.5" style="stop-color:rgb(0,147,129);stop-opacity:1"/><stop offset="1" style="stop-color:rgb(0,147,129);stop-opacity:0"/></linearGradient>
        <linearGradient id="_Linear15" x1="0" y1="0" x2="1" y2="0" gradientUnits="userSpaceOnUse" gradientTransform="matrix(4.89859e-16,-8,8,4.89859e-16,12,96)"><stop offset="0" style="stop-color:rgb(176,196,113);stop-opacity:1"/><stop offset="0.5" style="stop-color:rgb(0,147,129);stop-opacity:1"/><stop offset="1" style="stop-color:rgb(0,147,129);stop-opacity:0"/></linearGradient>
    </defs>
</svg>
