<?xml version="1.0" encoding="UTF-8" standalone="no"?>
<!DOCTYPE svg PUBLIC "-//W3C//DTD SVG 1.1//EN" "http://www.w3.org/Graphics/SVG/1.1/DTD/svg11.dtd">
<svg width="100%" height="100%" viewBox="0 0 1440 360" version="1.1" xmlns="http://www.w3.org/2000/svg" xmlns:xlink="http://www.w3.org/1999/xlink" xml:space="preserve" xmlns:serif="http://www.serif.com/" style="fill-rule:evenodd;clip-rule:evenodd;stroke-linejoin:round;stroke-miterlimit:2;">
    <g transform="matrix(1,0,0,1,-1944,-16)">
        <g transform="matrix(2.07671,0,0,0.519178,-1301.28,7.67779)">
            <rect id="mountainrange-1" x="1562.7" y="16.03" width="693.404" height="693.404" style="fill:none;"/>
            <clipPath id="_clip1">
                <rect id="mountainrange-11" serif:id="mountainrange-1" x="1562.7" y="16.03" width="693.404" height="693.404"/>
            </clipPath>
            <g clip-path="url(#_clip1)">
                <g transform="matrix(0.320664,0,0,2.22568,939.252,-127.72)">
                    <path d="M1943.52,267.765L2049.01,201.454L2102.41,183.224L2141.04,174.976L2164.04,187.564L2192.26,207.531L2253.03,218.817L2296.81,200.353L2334.79,167.798L2386.33,164.542L2402.07,142.297L2436.79,135.786L2470.98,118.966L2506.79,122.764L2536.09,157.489L2595.23,224.769L2698.81,233.848L2734.42,210.11L2778.51,188.068L2841.24,210.11L2968.84,224.663L3053.62,195.521L3114.55,149.157L3184.76,113.392L3250.99,125.313L3281.46,162.404L3338.42,165.053L3382.13,180.949L3412.6,202.144L3464.26,206.118L3519.9,253.806L3625.87,240.559L3685.48,195.521L3788.8,157.105L3835.16,126.638L3889.48,129.288L3934.51,166.378L4010.02,170.352L4032.54,195.521L4105.4,227.312L4105.4,376.999L1943.55,376.999L1943.52,267.765Z" style="fill:url(#_Linear2);"/>
                    <clipPath id="_clip3">
                        <path d="M1943.52,267.765L2049.01,201.454L2102.41,183.224L2141.04,174.976L2164.04,187.564L2192.26,207.531L2253.03,218.817L2296.81,200.353L2334.79,167.798L2386.33,164.542L2402.07,142.297L2436.79,135.786L2470.98,118.966L2506.79,122.764L2536.09,157.489L2595.23,224.769L2698.81,233.848L2734.42,210.11L2778.51,188.068L2841.24,210.11L2968.84,224.663L3053.62,195.521L3114.55,149.157L3184.76,113.392L3250.99,125.313L3281.46,162.404L3338.42,165.053L3382.13,180.949L3412.6,202.144L3464.26,206.118L3519.9,253.806L3625.87,240.559L3685.48,195.521L3788.8,157.105L3835.16,126.638L3889.48,129.288L3934.51,166.378L4010.02,170.352L4032.54,195.521L4105.4,227.312L4105.4,376.999L1943.55,376.999L1943.52,267.765Z"/>
                    </clipPath>
                    <g clip-path="url(#_clip3)">
                        <path d="M2044.63,203.909L2085.84,240.071L2107.65,315.494L2143.76,267.226L2152.5,218.958L2141.34,174.162L2097.23,179.718L2044.63,203.909Z" style="fill:url(#_Linear4);"/>
                        <g transform="matrix(1.71884,0,0,1.13671,-1344.94,-50.5716)">
                            <path d="M2059.39,226.915L2085.71,243.528L2101.35,256.96L2110.78,303.253L2130.8,287.106L2137.43,241.442L2141.51,176.246L2059.39,226.915Z" style="fill:url(#_Linear5);"/>
                        </g>
                        <g transform="matrix(2.07371,0,0,1.13671,-752.424,-5.53324)">
                            <path d="M2059.39,226.915L2085.71,243.528L2101.35,256.96L2110.78,303.253L2130.8,287.106L2137.43,241.442L2141.51,176.246L2059.39,226.915Z" style="fill:url(#_Linear6);"/>
                        </g>
                        <g transform="matrix(1,0,0,1,335.532,-86.1618)">
                            <path d="M2101.15,221.493L2105.75,248.531L2103.16,270.612L2115.12,279.51L2138.6,257.646L2140.32,239.016L2135.54,204.46L2101.15,221.493Z" style="fill:url(#_Linear7);"/>
                        </g>
                        <g transform="matrix(1,0,0,1,1705.23,-82.1879)">
                            <path d="M2101.15,221.493L2105.75,248.531L2103.16,270.612L2115.12,279.51L2138.6,257.646L2140.32,239.016L2135.54,204.46L2101.15,221.493Z" style="fill:url(#_Linear8);"/>
                        </g>
                        <g transform="matrix(4.06457,0,0,2.37115,-5579.07,-337.371)">
                            <path d="M2056.44,221.971L2076.91,245.421L2100.98,255.284L2129.61,281.272L2144.83,269.596L2143.44,251.196L2155.43,241.39L2157.41,230.815L2141.61,200.652L2056.44,221.971Z" style="fill:url(#_Linear9);"/>
                        </g>
                        <g transform="matrix(1,0,0,1,1052.67,-93.4867)">
                            <path d="M2061.57,242.328L2080.05,253.739L2101.77,265.056L2112.34,276.385L2138.6,257.646L2140.32,239.016L2135.54,204.46L2061.57,242.328Z" style="fill:url(#_Linear10);"/>
                        </g>
                        <g transform="matrix(1,0,0,1,908.124,-17.9595)">
                            <path d="M2061.57,242.328L2080.05,253.739L2101.77,265.056L2170.5,349.307L2176.36,302.355L2160.72,239.45L2144.66,213.141L2061.57,242.328Z" style="fill:url(#_Linear11);"/>
                        </g>
                    </g>
                </g>
            </g>
        </g>
    </g>
    <defs>
        <linearGradient id="_Linear2" x1="0" y1="0" x2="1" y2="0" gradientUnits="userSpaceOnUse" gradientTransform="matrix(2.20625e-14,-360.308,360.308,2.20625e-14,2817.57,377.97)"><stop offset="0" style="stop-color:rgb(246,246,246);stop-opacity:1"/><stop offset="1" style="stop-color:rgb(3,77,116);stop-opacity:1"/></linearGradient>
        <linearGradient id="_Linear4" x1="0" y1="0" x2="1" y2="0" gradientUnits="userSpaceOnUse" gradientTransform="matrix(1.71965e-14,-280.84,421.778,2.58264e-14,2104.7,295.614)"><stop offset="0" style="stop-color:rgb(246,246,246);stop-opacity:1"/><stop offset="1" style="stop-color:rgb(3,77,116);stop-opacity:1"/></linearGradient>
        <linearGradient id="_Linear5" x1="0" y1="0" x2="1" y2="0" gradientUnits="userSpaceOnUse" gradientTransform="matrix(1.71965e-14,-280.84,421.778,2.58264e-14,2104.7,295.614)"><stop offset="0" style="stop-color:rgb(246,246,246);stop-opacity:1"/><stop offset="1" style="stop-color:rgb(3,77,116);stop-opacity:1"/></linearGradient>
        <linearGradient id="_Linear6" x1="0" y1="0" x2="1" y2="0" gradientUnits="userSpaceOnUse" gradientTransform="matrix(1.10764e-14,-330.005,495.616,5.53638e-14,2104.7,295.614)"><stop offset="0" style="stop-color:rgb(246,246,246);stop-opacity:1"/><stop offset="1" style="stop-color:rgb(3,77,116);stop-opacity:1"/></linearGradient>
        <linearGradient id="_Linear7" x1="0" y1="0" x2="1" y2="0" gradientUnits="userSpaceOnUse" gradientTransform="matrix(1.71965e-14,-280.84,421.778,2.58264e-14,2104.7,295.614)"><stop offset="0" style="stop-color:rgb(246,246,246);stop-opacity:1"/><stop offset="1" style="stop-color:rgb(3,77,116);stop-opacity:1"/></linearGradient>
        <linearGradient id="_Linear8" x1="0" y1="0" x2="1" y2="0" gradientUnits="userSpaceOnUse" gradientTransform="matrix(1.71965e-14,-280.84,421.778,2.58264e-14,2104.7,295.614)"><stop offset="0" style="stop-color:rgb(246,246,246);stop-opacity:1"/><stop offset="1" style="stop-color:rgb(3,77,116);stop-opacity:1"/></linearGradient>
        <linearGradient id="_Linear9" x1="0" y1="0" x2="1" y2="0" gradientUnits="userSpaceOnUse" gradientTransform="matrix(7.50251e-15,-210.03,315.433,3.31088e-14,2104.7,295.614)"><stop offset="0" style="stop-color:rgb(246,246,246);stop-opacity:1"/><stop offset="1" style="stop-color:rgb(3,77,116);stop-opacity:1"/></linearGradient>
        <linearGradient id="_Linear10" x1="0" y1="0" x2="1" y2="0" gradientUnits="userSpaceOnUse" gradientTransform="matrix(1.71965e-14,-280.84,421.778,2.58264e-14,2104.7,295.614)"><stop offset="0" style="stop-color:rgb(246,246,246);stop-opacity:1"/><stop offset="1" style="stop-color:rgb(3,77,116);stop-opacity:1"/></linearGradient>
        <linearGradient id="_Linear11" x1="0" y1="0" x2="1" y2="0" gradientUnits="userSpaceOnUse" gradientTransform="matrix(1.52031e-14,-248.285,372.886,2.28327e-14,2104.7,285.305)"><stop offset="0" style="stop-color:rgb(246,246,246);stop-opacity:1"/><stop offset="1" style="stop-color:rgb(3,77,116);stop-opacity:1"/></linearGradient>
    </defs>
</svg>
